{
	"parent": "item/paintings/master_painting",
	"credit": "Made by Fuegon",
	"texture_size": [16, 16],
	"textures": {
		"0": "item/paintings/road/road4",
		"1": "painting/back",
		"particle": "item/paintings/road/road4"
	}
}