{
	"parent": "item/paintings/master_painting",
	"credit": "Made by Fuegon based on art by Jan Davidsz. de Heem",
	"texture_size": [16, 16],
	"textures": {
		"0": "item/paintings/flowers",
		"1": "painting/back",
		"particle": "item/paintings/flowers"
	}
}